<?xml version="1.0" encoding="UTF-8"?>
<svg width="12px" height="14px" viewBox="0 0 12 14" version="1.1" xmlns="http://www.w3.org/2000/svg" xmlns:xlink="http://www.w3.org/1999/xlink">
    <!-- Generator: Sketch 47.1 (45422) - http://www.bohemiancoding.com/sketch -->
    <title>hot-interface-symbol-of-fire-flames-outline</title>
    <desc>Created with Sketch.</desc>
    <defs></defs>
    <g id="Page-1" stroke="none" stroke-width="1" fill="none" fill-rule="evenodd">
        <g id="Mobile-website-Rapchatv5" transform="translate(-107.000000, -361.000000)" fill="#FFFFFF">
            <g id="hot-interface-symbol-of-fire-flames-outline" transform="translate(107.000000, 361.000000)">
                <path d="M9.77715847,3.1470015 C7.97452291,3.66086568 7.64359437,5.11818452 7.75972768,6.04365392 C6.47506721,4.53237934 6.52748136,2.7939768 6.52748136,0.288888887 C2.40269352,1.84435578 3.36207796,6.32679309 3.23977829,7.68750545 C2.20177263,6.83860182 2.00496264,4.8114076 2.00496264,4.8114076 C0.910945789,5.37511661 0.361111109,6.87868322 0.361111109,8.09911067 C0.361111109,11.0517743 2.75366276,13.4448398 5.70427093,13.4448398 C8.65744841,13.4448398 11.0500001,11.0517743 11.0500001,8.09911067 C11.0500001,6.34477833 9.76122869,5.5359561 9.77715847,3.1470015 Z M5.91135819,12.6216294 C3.2999004,12.6216294 1.18432154,10.4176659 1.18432154,7.94443755 C1.18432154,7.37045125 1.19614041,6.9048903 1.59335743,6.45525913 C1.55122057,6.71630214 2.16991305,8.94441726 4.18682998,8.82777009 C4.09844534,7.13355986 3.64110622,2.98667587 5.76850395,1.55145319 C5.57991579,3.80577538 6.13180593,6.8344909 8.59475698,7.27846956 C8.45447206,6.37304086 8.47040185,4.86947425 9.10296866,4.590446 C9.1713126,5.97530998 10.1969855,6.83037999 10.1969855,8.16128823 C10.1969855,10.572339 7.86455597,12.6216294 5.91135819,12.6216294 Z" id="Fill-1"></path>
            </g>
        </g>
    </g>
</svg>