<svg xmlns="http://www.w3.org/2000/svg" width="15" height="17" viewBox="0 0 15 17">
    <g fill="#FFF" fill-rule="evenodd">
        <path d="M-501-445H939V876H-501z"/>
        <path d="M0 6.747v8.759c0 .23.057.445.15.64l4.643-4.625L0 6.747M10.207 11.521l4.643 4.625c.093-.195.15-.41.15-.64V6.747l-4.793 4.774M7.5 5.047a.5.5 0 0 0-.5.498.5.5 0 0 0 .5.498c.346 0 .438-.237.493-.532a.496.496 0 0 0-.493-.464M9.293 12.02H5.707l-4.85 4.83c.196.093.412.15.643.15h12c.23 0 .447-.057.643-.15l-4.85-4.83M2 7.33V4.344L.5 5.837 2 7.33M14.5 5.837L13 4.343V7.33l1.5-1.494"/>
        <path d="M4 5.545a3.497 3.497 0 0 1 3.5-3.486c1.93 0 3.5 1.564 3.5 3.486 0 1.28-1.528 1.98-2.5 1.106a1.492 1.492 0 0 1-1 .388c-.827 0-1.5-.67-1.5-1.494S6.673 4.05 7.5 4.05 9 4.72 9 5.545c0 .658 1 .658 1 0a2.498 2.498 0 0 0-2.5-2.49A2.498 2.498 0 0 0 5 5.545c0 .852.432 1.637 1.155 2.099.742.472 1.661.517 2.524.123.596-.276 1.02.629.418.904-1.146.526-2.42.488-3.48-.189A3.472 3.472 0 0 1 4 5.545zm5.293 5.478L12 8.327V.638A.64.64 0 0 0 11.36 0H3.546A.546.546 0 0 0 3 .545v7.782l2.707 2.696h3.586z"/>
    </g>
</svg>
