<?xml version="1.0" encoding="UTF-8" standalone="no"?>
<svg width="15px" height="21px" viewBox="0 0 15 21" version="1.1" xmlns="http://www.w3.org/2000/svg" xmlns:xlink="http://www.w3.org/1999/xlink">
    <!-- Generator: Sketch 3.6.1 (26313) - http://www.bohemiancoding.com/sketch -->
    <title>playButton</title>
    <desc>Created with Sketch.</desc>
    <defs></defs>
    <g id="Welcome" stroke="none" stroke-width="1" fill="none" fill-rule="evenodd">
        <g id="pause-button-web" transform="translate(-43.000000, -40.000000)" fill="#FFFFFF">
            <g id="Group" transform="translate(7.000000, 7.000000)">
                <g id="playButton" transform="translate(36.000000, 33.000000)">
                    <g id="pause-button">
                        <rect id="Rectangle-1250" x="-1.63424829e-13" y="0" width="5.54525631" height="20.9169103"></rect>
                        <rect id="Rectangle-1250" x="8.46946101" y="0" width="5.54525631" height="20.9169103"></rect>
                    </g>
                </g>
            </g>
        </g>
    </g>
</svg>