<svg xmlns="http://www.w3.org/2000/svg" width="40" height="40" viewBox="0 0 40 40">
    <g fill="none" fill-rule="evenodd">
        <path fill="#55ACEE" d="M39.892 19.834c0 10.894-8.93 19.727-19.946 19.727C8.931 39.56 0 30.728 0 19.834 0 8.939 8.93.107 19.946.107c11.016 0 19.946 8.832 19.946 19.727z"/>
        <path fill="#F1F2F2" d="M32.163 14.284a9.61 9.61 0 0 1-2.738.742 4.75 4.75 0 0 0 2.098-2.608 9.647 9.647 0 0 1-3.028 1.144 4.786 4.786 0 0 0-3.481-1.489c-2.634 0-4.767 2.112-4.767 4.715 0 .369.041.73.123 1.075a13.585 13.585 0 0 1-9.826-4.928 4.647 4.647 0 0 0-.646 2.37c0 1.637.842 3.081 2.12 3.926a4.782 4.782 0 0 1-2.16-.59v.06c0 2.283 1.644 4.19 3.824 4.622a4.8 4.8 0 0 1-2.153.082 4.768 4.768 0 0 0 4.455 3.275 9.63 9.63 0 0 1-5.921 2.017c-.386 0-.766-.02-1.138-.065a13.6 13.6 0 0 0 7.307 2.119c8.77 0 13.567-7.186 13.567-13.417 0-.204-.006-.407-.014-.61a9.62 9.62 0 0 0 2.378-2.44z"/>
    </g>
</svg>
